cs233/Labs/Lab11/pam.vcd
$date
	Sat Nov 11 13:32:28 2017
$end
$version
	Icarus Verilog
$end
$timescale
	1s
$end
$scope module test $end
$var wire 32 ! out [31:0] $end
$var reg 1 " clk $end
$var reg 1 # done $end
$var reg 1 $ reset $end
$scope module pam $end
$var wire 1 % clk $end
$var wire 32 & data [31:0] $end
$var wire 32 ' data_2 [31:0] $end
$var wire 30 ( index [31:2] $end
$var wire 32 ) next_data [31:0] $end
$var wire 30 * next_index [31:2] $end
$var wire 32 + out [31:0] $end
$var wire 1 , reset $end
$scope module hold $end
$var wire 1 % clk $end
$var wire 32 - d [31:0] $end
$var wire 1 . enable $end
$var wire 1 , reset $end
$var reg 32 / q [31:0] $end
$upscope $end
$scope module Counter $end
$var wire 1 % clk $end
$var wire 30 0 d [29:0] $end
$var wire 1 1 enable $end
$var wire 1 , reset $end
$var reg 30 2 q [29:0] $end
$upscope $end
$scope module Adder $end
$var wire 30 3 in1 [29:0] $end
$var wire 30 4 in2 [29:0] $end
$var wire 30 5 out [29:0] $end
$upscope $end
$scope module rom $end
$var wire 30 6 addr [29:0] $end
$var wire 32 7 data [31:0] $end
$var reg 32 8 i [31:0] $end
$upscope $end
$scope module alu $end
$var wire 3 9 control [2:0] $end
$var wire 32 : inA [31:0] $end
$var wire 32 ; inB [31:0] $end
$var wire 32 < out [31:0] $end
$var wire 1 = zero $end
$upscope $end
$scope module Register $end
$var wire 1 % clk $end
$var wire 32 > d [31:0] $end
$var wire 1 ? enable $end
$var wire 1 , reset $end
$var reg 32 @ q [31:0] $end
$upscope $end
$upscope $end
$upscope $end
$enddefinitions $end
#0
$dumpvars
bx @
1?
bx >
x=
bx <
bx ;
bx :
b0 9
b100000000 8
bx 7
bx 6
bx 5
b1 4
bx 3
bx 2
11
bx 0
bx /
1.
bx -
1,
bx +
bx *
bx )
bx (
bx '
bx &
0%
1$
0#
0"
bx !
$end
#1
b0 /
b0 '
b0 ;
b0 2
b0 (
b0 3
b0 6
b0 @
b0 !
b0 +
b0 :
1"
1%
#2
1=
0"
0%
#3
1"
1%
b0 )
b0 <
b0 >
b1 &
b1 -
b1 7
b1 *
b1 0
b1 5
#4
0"
0%
#5
1"
1%
#6
0"
0%
#7
1"
1%
#8
0"
0%
#9
1"
1%
#10
0"
0%
#11
1"
1%
#12
0"
0%
#13
b1 /
b1 '
b1 ;
b1 2
b1 (
b1 3
b1 6
1"
1%
0$
0,
#14
0=
0"
0%
#15
b1 @
b1 !
b1 +
b1 :
b10 2
b10 (
b10 3
b10 6
b10 /
b10 '
b10 ;
1"
1%
b1 )
b1 <
b1 >
b10 &
b10 -
b10 7
b10 *
b10 0
b10 5
#16
0"
0%
#17
b100 /
b100 '
b100 ;
b11 2
b11 (
b11 3
b11 6
b11 @
b11 !
b11 +
b11 :
1"
1%
b11 )
b11 <
b11 >
b100 &
b100 -
b100 7
b11 *
b11 0
b11 5
#18
0"
0%
#19
b111 @
b111 !
b111 +
b111 :
b100 2
b100 (
b100 3
b100 6
b1000 /
b1000 '
b1000 ;
1"
1%
b111 )
b111 <
b111 >
b1000 &
b1000 -
b1000 7
b100 *
b100 0
b100 5
#20
0"
0%
#21
b10000 /
b10000 '
b10000 ;
b101 2
b101 (
b101 3
b101 6
b1111 @
b1111 !
b1111 +
b1111 :
1"
1%
b1111 )
b1111 <
b1111 >
b10000 &
b10000 -
b10000 7
b101 *
b101 0
b101 5
#22
0"
0%
#23
b11111 @
b11111 !
b11111 +
b11111 :
b110 2
b110 (
b110 3
b110 6
b100000 /
b100000 '
b100000 ;
1"
1%
b11111 )
b11111 <
b11111 >
b100000 &
b100000 -
b100000 7
b110 *
b110 0
b110 5
#24
0"
0%
#25
b1000000 /
b1000000 '
b1000000 ;
b111 2
b111 (
b111 3
b111 6
b111111 @
b111111 !
b111111 +
b111111 :
1"
1%
b111111 )
b111111 <
b111111 >
b1000000 &
b1000000 -
b1000000 7
b111 *
b111 0
b111 5
#26
0"
0%
#27
b1111111 @
b1111111 !
b1111111 +
b1111111 :
b1000 2
b1000 (
b1000 3
b1000 6
b10000000 /
b10000000 '
b10000000 ;
1"
1%
b1111111 )
b1111111 <
b1111111 >
b10000000 &
b10000000 -
b10000000 7
b1000 *
b1000 0
b1000 5
#28
0"
0%
#29
b0 /
b0 '
b0 ;
b1001 2
b1001 (
b1001 3
b1001 6
b11111111 @
b11111111 !
b11111111 +
b11111111 :
1"
1%
b11111111 )
b11111111 <
b11111111 >
b0 &
b0 -
b0 7
b1001 *
b1001 0
b1001 5
#30
0"
0%
#31
b1010 2
b1010 (
b1010 3
b1010 6
1"
1%
b1010 *
b1010 0
b1010 5
#32
0"
0%
#33
b1011 2
b1011 (
b1011 3
b1011 6
1"
1%
b1011 *
b1011 0
b1011 5
#34
0"
0%
#35
b1100 2
b1100 (
b1100 3
b1100 6
1"
1%
b1100 *
b1100 0
b1100 5
#36
0"
0%
#37
b1101 2
b1101 (
b1101 3
b1101 6
1"
1%
b1101 *
b1101 0
b1101 5
#38
0"
0%
#39
b1110 2
b1110 (
b1110 3
b1110 6
1"
1%
b1110 *
b1110 0
b1110 5
#40
0"
0%
#41
b1111 2
b1111 (
b1111 3
b1111 6
1"
1%
b1111 *
b1111 0
b1111 5
#42
0"
0%
#43
b10000 2
b10000 (
b10000 3
b10000 6
1"
1%
b10000 *
b10000 0
b10000 5
#44
0"
0%
#45
b10001 2
b10001 (
b10001 3
b10001 6
1"
1%
b10001 *
b10001 0
b10001 5
#46
0"
0%
#47
b10010 2
b10010 (
b10010 3
b10010 6
1"
1%
b10010 *
b10010 0
b10010 5
#48
0"
0%
#49
b10011 2
b10011 (
b10011 3
b10011 6
1"
1%
b10011 *
b10011 0
b10011 5
#50
0"
0%
#51
b10100 2
b10100 (
b10100 3
b10100 6
1"
1%
b10100 *
b10100 0
b10100 5
#52
0"
0%
#53
b10101 2
b10101 (
b10101 3
b10101 6
1"
1%
b10101 *
b10101 0
b10101 5
#54
0"
0%
#55
b10110 2
b10110 (
b10110 3
b10110 6
1"
1%
b10110 *
b10110 0
b10110 5
#56
0"
0%
#57
b10111 2
b10111 (
b10111 3
b10111 6
1"
1%
b10111 *
b10111 0
b10111 5
#58
0"
0%
#59
b11000 2
b11000 (
b11000 3
b11000 6
1"
1%
b11000 *
b11000 0
b11000 5
#60
0"
0%
#61
b11001 2
b11001 (
b11001 3
b11001 6
1"
1%
b11001 *
b11001 0
b11001 5
#62
0"
0%
#63
b11010 2
b11010 (
b11010 3
b11010 6
1"
1%
b11010 *
b11010 0
b11010 5
1#
