cs233/Labs/Lab11/pm.vcd
$date
	Sat Nov 11 13:32:28 2017
$end
$version
	Icarus Verilog
$end
$timescale
	1s
$end
$scope module test $end
$var wire 32 ! PC [31:0] $end
$var reg 1 " clk $end
$var reg 1 # done $end
$var integer 32 $ i [31:0] $end
$var reg 1 % reset $end
$scope module pm $end
$var wire 3 & ALUOp [2:0] $end
$var wire 1 ' ALUSrc $end
$var wire 1 ( BEQ $end
$var wire 32 ) B_data [31:0] $end
$var wire 1 * MemRead $end
$var wire 1 + MemToReg $end
$var wire 1 , MemWrite $end
$var wire 32 - PC [31:0] $end
$var wire 1 . PCSrc $end
$var wire 32 / PC_S_plus4 [31:0] $end
$var wire 32 0 PC_inst [31:0] $end
$var wire 30 1 PC_plus4 [31:2] $end
$var wire 30 2 PC_target [31:2] $end
$var wire 1 3 RegDst $end
$var wire 1 4 RegWrite $end
$var wire 32 5 alu_out_data [31:0] $end
$var wire 32 6 alu_out_data_2 [31:0] $end
$var wire 1 7 clk $end
$var wire 1 8 flush $end
$var wire 1 9 forwardA $end
$var wire 1 : forwardB $end
$var wire 6 ; funct [5:0] $end
$var wire 32 < imm [31:0] $end
$var wire 32 = inst [31:0] $end
$var wire 32 > load_data [31:0] $end
$var wire 1 ? mr $end
$var wire 1 @ mtReg $end
$var wire 1 A mw $end
$var wire 30 B next_PC [31:2] $end
$var wire 6 C opcode [5:0] $end
$var wire 5 D prev_regnum [4:0] $end
$var wire 5 E rd [4:0] $end
$var wire 32 F rd1_data [31:0] $end
$var wire 32 G rd2_data [31:0] $end
$var wire 32 H rd2_data_2 [31:0] $end
$var wire 32 I rd_data [31:0] $end
$var wire 1 J reset $end
$var wire 5 K rs [4:0] $end
$var wire 5 L rt [4:0] $end
$var wire 32 M rt_data [31:0] $end
$var wire 1 N rw $end
$var wire 1 O stall $end
$var wire 32 P wr_data [31:0] $end
$var wire 5 Q wr_regnum [4:0] $end
$var wire 1 R zero $end
$scope module pc_hold $end
$var wire 1 7 clk $end
$var wire 30 S d [29:0] $end
$var wire 1 T enable $end
$var wire 1 J reset $end
$var reg 30 U q [29:0] $end
$upscope $end
$scope module inst_hold $end
$var wire 1 7 clk $end
$var wire 32 V d [31:0] $end
$var wire 1 W enable $end
$var wire 1 J reset $end
$var reg 32 X q [31:0] $end
$upscope $end
$scope module alu_hold $end
$var wire 1 7 clk $end
$var wire 32 Y d [31:0] $end
$var wire 1 Z enable $end
$var wire 1 J reset $end
$var reg 32 [ q [31:0] $end
$upscope $end
$scope module m_write $end
$var wire 1 7 clk $end
$var wire 1 , d $end
$var wire 1 \ enable $end
$var wire 1 J reset $end
$var reg 1 ] q $end
$upscope $end
$scope module m_read $end
$var wire 1 7 clk $end
$var wire 1 * d $end
$var wire 1 ^ enable $end
$var wire 1 J reset $end
$var reg 1 _ q $end
$upscope $end
$scope module m_to_reg $end
$var wire 1 7 clk $end
$var wire 1 + d $end
$var wire 1 ` enable $end
$var wire 1 J reset $end
$var reg 1 a q $end
$upscope $end
$scope module reg_write $end
$var wire 1 7 clk $end
$var wire 1 4 d $end
$var wire 1 b enable $end
$var wire 1 J reset $end
$var reg 1 c q $end
$upscope $end
$scope module write_hold $end
$var wire 1 7 clk $end
$var wire 32 d d [31:0] $end
$var wire 1 e enable $end
$var wire 1 J reset $end
$var reg 32 f q [31:0] $end
$upscope $end
$scope module write_regnum_hold $end
$var wire 1 7 clk $end
$var wire 5 g d [4:0] $end
$var wire 1 h enable $end
$var wire 1 J reset $end
$var reg 5 i q [4:0] $end
$upscope $end
$scope module alu_rd1 $end
$var wire 32 j A [31:0] $end
$var wire 32 k B [31:0] $end
$var wire 32 l out [31:0] $end
$var wire 1 9 sel $end
$var wire 32 m temp1 [31:0] $end
$var wire 32 n temp2 [31:0] $end
$upscope $end
$scope module alu_rd2 $end
$var wire 32 o A [31:0] $end
$var wire 32 p B [31:0] $end
$var wire 32 q out [31:0] $end
$var wire 1 : sel $end
$var wire 32 r temp1 [31:0] $end
$var wire 32 s temp2 [31:0] $end
$upscope $end
$scope module PC_reg $end
$var wire 1 7 clk $end
$var wire 30 t d [29:0] $end
$var wire 1 u enable $end
$var wire 1 J reset $end
$var reg 30 v q [29:0] $end
$upscope $end
$scope module next_PC_adder $end
$var wire 30 w in1 [29:0] $end
$var wire 30 x in2 [29:0] $end
$var wire 30 y out [29:0] $end
$upscope $end
$scope module target_PC_adder $end
$var wire 30 z in1 [29:0] $end
$var wire 30 { in2 [29:0] $end
$var wire 30 | out [29:0] $end
$upscope $end
$scope module branch_mux $end
$var wire 30 } A [29:0] $end
$var wire 30 ~ B [29:0] $end
$var wire 30 !" out [29:0] $end
$var wire 1 . sel $end
$var wire 30 "" temp1 [29:0] $end
$var wire 30 #" temp2 [29:0] $end
$upscope $end
$scope module imem $end
$var wire 30 $" addr [29:0] $end
$var wire 32 %" data [31:0] $end
$var reg 32 &" i [31:0] $end
$upscope $end
$scope module decode $end
$var wire 3 '" ALUOp [2:0] $end
$var wire 1 ' ALUSrc $end
$var wire 1 ( BEQ $end
$var wire 1 * MemRead $end
$var wire 1 + MemToReg $end
$var wire 1 , MemWrite $end
$var wire 1 3 RegDst $end
$var wire 1 4 RegWrite $end
$var wire 6 (" funct [5:0] $end
$var wire 1 )" nop $end
$var wire 1 *" op0 $end
$var wire 6 +" opcode [5:0] $end
$upscope $end
$scope module rf $end
$var wire 1 7 clock $end
$var wire 32 ," internal_rdData [31:0] $end
$var wire 32 -" rdData [31:0] $end
$var wire 5 ." rdNum [4:0] $end
$var wire 1 N rdWriteEnable $end
$var wire 1 J reset $end
$var wire 32 /" rsData [31:0] $end
$var wire 5 0" rsNum [4:0] $end
$var wire 32 1" rtData [31:0] $end
$var wire 5 2" rtNum [4:0] $end
$var integer 32 3" i [31:0] $end
$upscope $end
$scope module imm_mux $end
$var wire 32 4" A [31:0] $end
$var wire 32 5" B [31:0] $end
$var wire 32 6" out [31:0] $end
$var wire 1 ' sel $end
$var wire 32 7" temp1 [31:0] $end
$var wire 32 8" temp2 [31:0] $end
$upscope $end
$scope module alu $end
$var wire 3 9" control [2:0] $end
$var wire 32 :" inA [31:0] $end
$var wire 32 ;" inB [31:0] $end
$var wire 32 <" out [31:0] $end
$var wire 1 R zero $end
$upscope $end
$scope module data_memory $end
$var wire 32 =" addr [31:0] $end
$var wire 1 7 clk $end
$var wire 32 >" d_out [31:0] $end
$var wire 32 ?" data_in [31:0] $end
$var wire 32 @" data_out [31:0] $end
$var wire 19 A" index [18:0] $end
$var wire 32 B" internal_data_in [31:0] $end
$var wire 1 ? mem_read $end
$var wire 1 A mem_write $end
$var wire 1 J reset $end
$var wire 1 C" valid_address $end
$var integer 32 D" i [31:0] $end
$upscope $end
$scope module wb_mux $end
$var wire 32 E" A [31:0] $end
$var wire 32 F" B [31:0] $end
$var wire 32 G" out [31:0] $end
$var wire 1 H" sel $end
$var wire 32 I" temp1 [31:0] $end
$var wire 32 J" temp2 [31:0] $end
$upscope $end
$scope module rd_mux $end
$var wire 5 K" A [4:0] $end
$var wire 5 L" B [4:0] $end
$var wire 5 M" out [4:0] $end
$var wire 1 3 sel $end
$var wire 5 N" temp1 [4:0] $end
$var wire 5 O" temp2 [4:0] $end
$upscope $end
$upscope $end
$upscope $end
$scope module test $end
$scope module pm $end
$scope module rf $end
$var reg 32 P" \r[0] [31:0] $end
$upscope $end
$upscope $end
$upscope $end
$scope module test $end
$scope module pm $end
$scope module rf $end
$var reg 32 Q" \r[1] [31:0] $end
$upscope $end
$upscope $end
$upscope $end
$scope module test $end
$scope module pm $end
$scope module rf $end
$var reg 32 R" \r[2] [31:0] $end
$upscope $end
$upscope $end
$upscope $end
$scope module test $end
$scope module pm $end
$scope module rf $end
$var reg 32 S" \r[3] [31:0] $end
$upscope $end
$upscope $end
$upscope $end
$scope module test $end
$scope module pm $end
$scope module rf $end
$var reg 32 T" \r[4] [31:0] $end
$upscope $end
$upscope $end
$upscope $end
$scope module test $end
$scope module pm $end
$scope module rf $end
$var reg 32 U" \r[5] [31:0] $end
$upscope $end
$upscope $end
$upscope $end
$scope module test $end
$scope module pm $end
$scope module rf $end
$var reg 32 V" \r[6] [31:0] $end
$upscope $end
$upscope $end
$upscope $end
$scope module test $end
$scope module pm $end
$scope module rf $end
$var reg 32 W" \r[7] [31:0] $end
$upscope $end
$upscope $end
$upscope $end
$scope module test $end
$scope module pm $end
$scope module rf $end
$var reg 32 X" \r[8] [31:0] $end
$upscope $end
$upscope $end
$upscope $end
$scope module test $end
$scope module pm $end
$scope module rf $end
$var reg 32 Y" \r[9] [31:0] $end
$upscope $end
$upscope $end
$upscope $end
$scope module test $end
$scope module pm $end
$scope module rf $end
$var reg 32 Z" \r[10] [31:0] $end
$upscope $end
$upscope $end
$upscope $end
$scope module test $end
$scope module pm $end
$scope module rf $end
$var reg 32 [" \r[11] [31:0] $end
$upscope $end
$upscope $end
$upscope $end
$scope module test $end
$scope module pm $end
$scope module rf $end
$var reg 32 \" \r[12] [31:0] $end
$upscope $end
$upscope $end
$upscope $end
$scope module test $end
$scope module pm $end
$scope module rf $end
$var reg 32 ]" \r[13] [31:0] $end
$upscope $end
$upscope $end
$upscope $end
$scope module test $end
$scope module pm $end
$scope module rf $end
$var reg 32 ^" \r[14] [31:0] $end
$upscope $end
$upscope $end
$upscope $end
$scope module test $end
$scope module pm $end
$scope module rf $end
$var reg 32 _" \r[15] [31:0] $end
$upscope $end
$upscope $end
$upscope $end
$scope module test $end
$scope module pm $end
$scope module rf $end
$var reg 32 `" \r[16] [31:0] $end
$upscope $end
$upscope $end
$upscope $end
$scope module test $end
$scope module pm $end
$scope module rf $end
$var reg 32 a" \r[17] [31:0] $end
$upscope $end
$upscope $end
$upscope $end
$scope module test $end
$scope module pm $end
$scope module rf $end
$var reg 32 b" \r[18] [31:0] $end
$upscope $end
$upscope $end
$upscope $end
$scope module test $end
$scope module pm $end
$scope module rf $end
$var reg 32 c" \r[19] [31:0] $end
$upscope $end
$upscope $end
$upscope $end
$scope module test $end
$scope module pm $end
$scope module rf $end
$var reg 32 d" \r[20] [31:0] $end
$upscope $end
$upscope $end
$upscope $end
$scope module test $end
$scope module pm $end
$scope module rf $end
$var reg 32 e" \r[21] [31:0] $end
$upscope $end
$upscope $end
$upscope $end
$scope module test $end
$scope module pm $end
$scope module rf $end
$var reg 32 f" \r[22] [31:0] $end
$upscope $end
$upscope $end
$upscope $end
$scope module test $end
$scope module pm $end
$scope module rf $end
$var reg 32 g" \r[23] [31:0] $end
$upscope $end
$upscope $end
$upscope $end
$scope module test $end
$scope module pm $end
$scope module rf $end
$var reg 32 h" \r[24] [31:0] $end
$upscope $end
$upscope $end
$upscope $end
$scope module test $end
$scope module pm $end
$scope module rf $end
$var reg 32 i" \r[25] [31:0] $end
$upscope $end
$upscope $end
$upscope $end
$scope module test $end
$scope module pm $end
$scope module rf $end
$var reg 32 j" \r[26] [31:0] $end
$upscope $end
$upscope $end
$upscope $end
$scope module test $end
$scope module pm $end
$scope module rf $end
$var reg 32 k" \r[27] [31:0] $end
$upscope $end
$upscope $end
$upscope $end
$scope module test $end
$scope module pm $end
$scope module rf $end
$var reg 32 l" \r[28] [31:0] $end
$upscope $end
$upscope $end
$upscope $end
$scope module test $end
$scope module pm $end
$scope module rf $end
$var reg 32 m" \r[29] [31:0] $end
$upscope $end
$upscope $end
$upscope $end
$scope module test $end
$scope module pm $end
$scope module rf $end
$var reg 32 n" \r[30] [31:0] $end
$upscope $end
$upscope $end
$upscope $end
$scope module test $end
$scope module pm $end
$scope module rf $end
$var reg 32 o" \r[31] [31:0] $end
$upscope $end
$upscope $end
$upscope $end
$enddefinitions $end
#0
$dumpvars
b10000000000010000000000000000 o"
b10000000000010000000000000000 n"
b10000000000010000000000000000 m"
b10000000000010000000000000000 l"
b10000000000010000000000000000 k"
b10000000000010000000000000000 j"
b10000000000010000000000000000 i"
b10000000000010000000000000000 h"
b10000000000010000000000000000 g"
b10000000000010000000000000000 f"
b10000000000010000000000000000 e"
b10000000000010000000000000000 d"
b10000000000010000000000000000 c"
b10000000000010000000000000000 b"
b10000000000010000000000000000 a"
b10000000000010000000000000000 `"
b10000000000010000000000000000 _"
b10000000000010000000000000000 ^"
b10000000000010000000000000000 ]"
b10000000000010000000000000000 \"
b10000000000010000000000000000 ["
b10000000000010000000000000000 Z"
b10000000000010000000000000000 Y"
b10000000000010000000000000000 X"
b10000000000010000000000000000 W"
b10000000000010000000000000000 V"
b10000000000010000000000000000 U"
b10000000000010000000000000000 T"
b10000000000010000000000000000 S"
b10000000000010000000000000000 R"
b10000000000010000000000000000 Q"
b0 P"
bx O"
bx N"
bx M"
bx L"
bx K"
bx J"
bx I"
xH"
bx G"
bx F"
bx E"
b1000000000000000000 D"
xC"
bx B"
bx A"
bx @"
bx ?"
bx >"
bx ="
bx <"
bx ;"
bx :"
bx 9"
bx 8"
bx 7"
bx 6"
bx 5"
bx 4"
b100000 3"
bx 2"
bx 1"
bx 0"
bx /"
bx ."
bx -"
bx ,"
bx +"
x*"
x)"
bx ("
bx '"
b100000000 &"
bx %"
bx $"
bx #"
bx ""
bx !"
bx ~
bx }
bx |
bx {
bx z
bx y
b1 x
bx w
bx v
1u
bx t
bx s
bx r
bx q
bx p
bx o
bx n
bx m
bx l
bx k
bx j
bx i
1h
bx g
bx f
1e
bx d
xc
1b
xa
1`
x_
1^
x]
1\
bx [
1Z
bx Y
bx X
1W
bx V
bx U
1T
bx S
xR
bx Q
bx P
xO
xN
bx M
bx L
bx K
1J
bx I
bx H
bx G
bx F
bx E
bx D
bx C
bx B
xA
x@
x?
bx >
bx =
bx <
bx ;
x:
x9
18
07
bx 6
bx 5
x4
x3
bx 2
bx 1
bx 0
bxzz /
x.
bx00 -
x,
x+
x*
bx )
x(
x'
bx &
1%
b100000 $
0#
0"
bx00 !
$end
#6
1O
b0 D
b0 g
b0 M"
b0 O"
b0 N"
b0 {
b0 8"
b11011110101011011011111011101111 >"
b0 A"
b0 P
b0 -"
b0 G"
b0 J"
b100000000000000000000 z
b0 ;
b0 ("
1*"
b0 C
b0 +"
b0 E
b0 L"
b0 L
b0 2"
b0 K"
b0 K
b0 0"
b0 <
b0 5"
b0 n
b0 s
0C"
b0 I"
0H"
0:
09
b100000000000000000000 w
b100000000000000000000 $"
b100000000000000000000 U
b100000000000000000000zz /
b0 X
b0 =
b0 [
b0 6
b0 k
b0 p
b0 ="
b0 E"
0]
0A
0_
0?
0a
0@
0c
0N
b0 f
b0 H
b0 ?"
b0 i
b0 Q
b0 ."
b100000000000000000000 v
b10000000000000000000000 -
b10000000000000000000000 !
1"
17
#7
b0 )
b0 6"
b0 ;"
b0 7"
b0 M
b0 q
b0 4"
b0 I
b0 l
b0 :"
b0 r
b0 m
x8
b0 ,"
b0 G
b0 d
b0 o
b0 1"
b0 F
b0 j
b0 /"
0%
0J
#8
04
08
b100000000000000000001 B
b100000000000000000001 t
b100000000000000000001 !"
b0 #"
0.
13
0'
b100000000000000000001 ""
1R
b0 &
b0 '"
b0 9"
1)"
b100000000000000000000 2
b100000000000000000000 |
b100000000000000000000 ~
0(
0+
0*
0,
b100000000000000000001 1
b100000000000000000001 S
b100000000000000000001 y
b100000000000000000001 }
#9
b0 5
b0 Y
b0 <"
b10001110100000100000000000000000 0
b10001110100000100000000000000000 V
b10001110100000100000000000000000 %"
b0 >
b0 @"
b0 F"
b0 B"
#12
0"
07
#18
b100000000000000000001 w
b100000000000000000001 $"
0*"
b100011 C
b100011 +"
b10 L
b10 2"
b10 K"
0O
b10100 K
b10100 0"
b100000000000000000001 z
b100000000000000000001 v
b10000000000000000000100 -
b10000000000000000000100 !
b10001110100000100000000000000000 X
b10001110100000100000000000000000 =
b100000000000000000001 U
b100000000000000000001zz /
1"
17
#19
b10000000000010000000000000000 )
b10000000000010000000000000000 6"
b10000000000010000000000000000 ;"
b10000000000010000000000000000 7"
b10000000000010000000000000000 M
b10000000000010000000000000000 q
b10000000000010000000000000000 4"
b10000000000010000000000000000 I
b10000000000010000000000000000 l
b10000000000010000000000000000 :"
b10000000000010000000000000000 r
b10000000000010000000000000000 m
b10000000000010000000000000000 G
b10000000000010000000000000000 d
b10000000000010000000000000000 o
b10000000000010000000000000000 1"
b10000000000010000000000000000 F
b10000000000010000000000000000 j
b10000000000010000000000000000 /"
#20
b10 D
b10 g
b10 M"
b0 )
b0 6"
b0 ;"
14
b100000000000000000010 B
b100000000000000000010 t
b100000000000000000010 !"
b10 N"
b0 7"
b100000000000000000010 ""
03
1'
0)"
b100000000000000000010 1
b100000000000000000010 S
b100000000000000000010 y
b100000000000000000010 }
1+
1*
b100000000000000000001 2
b100000000000000000001 |
b100000000000000000001 ~
#21
0R
b10001110100000110000000000000100 0
b10001110100000110000000000000100 V
b10001110100000110000000000000100 %"
#22
b10000000000010000000000000000 5
b10000000000010000000000000000 Y
b10000000000010000000000000000 <"
#24
0"
07
#30
b11 D
b11 g
b11 M"
b100 )
b100 6"
b100 ;"
b11 N"
b100 {
b100 8"
b1 >"
b100000000000000 A"
b100000000000000000010 z
b100 ;
b100 ("
b11 L
b11 2"
b11 K"
b100 <
b100 5"
1C"
1H"
b100000000000000000010 w
b100000000000000000010 $"
b100000000000000000010 U
b100000000000000000010zz /
b10001110100000110000000000000100 X
b10001110100000110000000000000100 =
b10000000000010000000000000000 [
b10000000000010000000000000000 6
b10000000000010000000000000000 k
b10000000000010000000000000000 p
b10000000000010000000000000000 ="
b10000000000010000000000000000 E"
1_
1?
1a
1@
1c
1N
b10000000000010000000000000000 f
b10000000000010000000000000000 H
b10000000000010000000000000000 ?"
b10 i
b10 Q
b10 ."
b100000000000000000010 v
b10000000000000000001000 -
b10000000000000000001000 !
1"
17
#32
b100000000000000000011 B
b100000000000000000011 t
b100000000000000000011 !"
b100000000000000000011 ""
b10000000000010000000000000100 5
b10000000000010000000000000100 Y
b10000000000010000000000000100 <"
b100000000000000000110 2
b100000000000000000110 |
b100000000000000000110 ~
b100000000000000000011 1
b100000000000000000011 S
b100000000000000000011 y
b100000000000000000011 }
#33
b1 P
b1 -"
b1 G"
b1 J"
b10001110100001000000000000001000 0
b10001110100001000000000000001000 V
b10001110100001000000000000001000 %"
b1 >
b1 @"
b1 F"
b10000000000010000000000000000 B"
#34
b1 ,"
#36
0"
07
#42
b100 D
b100 g
b100 M"
b1000 )
b1000 6"
b1000 ;"
b11111111 >"
b100000000000001 A"
b100 N"
b1000 {
b1000 8"
b100000000000000000011 w
b100000000000000000011 $"
b1000 ;
b1000 ("
b100 L
b100 2"
b100 K"
b1000 <
b1000 5"
b100000000000000000011 z
b1 R"
b100000000000000000011 v
b10000000000000000001100 -
b10000000000000000001100 !
b11 i
b11 Q
b11 ."
b10000000000010000000000000100 [
b10000000000010000000000000100 6
b10000000000010000000000000100 k
b10000000000010000000000000100 p
b10000000000010000000000000100 ="
b10000000000010000000000000100 E"
b10001110100001000000000000001000 X
b10001110100001000000000000001000 =
b100000000000000000011 U
b100000000000000000011zz /
1"
17
#44
b100000000000000000100 B
b100000000000000000100 t
b100000000000000000100 !"
b100000000000000000100 ""
b10000000000010000000000001000 5
b10000000000010000000000001000 Y
b10000000000010000000000001000 <"
b100000000000000000100 1
b100000000000000000100 S
b100000000000000000100 y
b100000000000000000100 }
b100000000000000001011 2
b100000000000000001011 |
b100000000000000001011 ~
#45
b11111111 P
b11111111 -"
b11111111 G"
b11111111 J"
b11111111 >
b11111111 @"
b11111111 F"
b10001110100001010000000000001100 0
b10001110100001010000000000001100 V
b10001110100001010000000000001100 %"
#46
b11111111 ,"
#48
0"
07
#54
b101 D
b101 g
b101 M"
b1100 )
b1100 6"
b1100 ;"
b101 N"
b1100 {
b1100 8"
b10000000000 >"
b100000000000010 A"
b100000000000000000100 z
b1100 ;
b1100 ("
b101 L
b101 2"
b101 K"
b1100 <
b1100 5"
b100000000000000000100 w
b100000000000000000100 $"
b100000000000000000100 U
b100000000000000000100zz /
b10001110100001010000000000001100 X
b10001110100001010000000000001100 =
b10000000000010000000000001000 [
b10000000000010000000000001000 6
b10000000000010000000000001000 k
b10000000000010000000000001000 p
b10000000000010000000000001000 ="
b10000000000010000000000001000 E"
b100 i
b100 Q
b100 ."
b100000000000000000100 v
b10000000000000000010000 -
b10000000000000000010000 !
b11111111 S"
1"
17
#56
b100000000000000000101 B
b100000000000000000101 t
b100000000000000000101 !"
b100000000000000000101 ""
b10000000000010000000000001100 5
b10000000000010000000000001100 Y
b10000000000010000000000001100 <"
b100000000000000010000 2
b100000000000000010000 |
b100000000000000010000 ~
b100000000000000000101 1
b100000000000000000101 S
b100000000000000000101 y
b100000000000000000101 }
#57
b10000000000 P
b10000000000 -"
b10000000000 G"
b10000000000 J"
b10000000000 >
b10000000000 @"
b10000000000 F"
b10001110100001100000000000010000 0
b10001110100001100000000000010000 V
b10001110100001100000000000010000 %"
#58
b10000000000 ,"
#60
0"
07
#66
b110 D
b110 g
b110 M"
b10000 )
b10000 6"
b10000 ;"
b1100100 >"
b100000000000011 A"
b110 N"
b10000 {
b10000 8"
b100000000000000000101 w
b100000000000000000101 $"
b10000 ;
b10000 ("
b110 L
b110 2"
b110 K"
b10000 <
b10000 5"
b100000000000000000101 z
b10000000000 T"
b100000000000000000101 v
b10000000000000000010100 -
b10000000000000000010100 !
b101 i
b101 Q
b101 ."
b10000000000010000000000001100 [
b10000000000010000000000001100 6
b10000000000010000000000001100 k
b10000000000010000000000001100 p
b10000000000010000000000001100 ="
b10000000000010000000000001100 E"
b10001110100001100000000000010000 X
b10001110100001100000000000010000 =
b100000000000000000101 U
b100000000000000000101zz /
1"
17
#68
b100000000000000000110 B
b100000000000000000110 t
b100000000000000000110 !"
b100000000000000000110 ""
b10000000000010000000000010000 5
b10000000000010000000000010000 Y
b10000000000010000000000010000 <"
b100000000000000000110 1
b100000000000000000110 S
b100000000000000000110 y
b100000000000000000110 }
b100000000000000010101 2
b100000000000000010101 |
b100000000000000010101 ~
#69
b1100100 P
b1100100 -"
b1100100 G"
b1100100 J"
b1100100 >
b1100100 @"
b1100100 F"
b10001010011100000100000 0
b10001010011100000100000 V
b10001010011100000100000 %"
#70
b1100100 ,"
#72
0"
07
#78
b101 D
b101 g
b101 M"
b11100000100000 )
b11100000100000 6"
b11100000100000 ;"
b101 N"
b11100000100000 {
b11100000100000 8"
b11001000 >"
b100000000000100 A"
b100000000000000000110 z
b100000 ;
b100000 ("
1*"
b0 C
b0 +"
b111 E
b111 L"
b101 L
b101 2"
b101 K"
b10 K
b10 0"
b11100000100000 <
b11100000100000 5"
b100000000000000000110 w
b100000000000000000110 $"
b100000000000000000110 U
b100000000000000000110zz /
b10001010011100000100000 X
b10001010011100000100000 =
b10000000000010000000000010000 [
b10000000000010000000000010000 6
b10000000000010000000000010000 k
b10000000000010000000000010000 p
b10000000000010000000000010000 ="
b10000000000010000000000010000 E"
b110 i
b110 Q
b110 ."
b100000000000000000110 v
b10000000000000000011000 -
b10000000000000000011000 !
b1100100 U"
1"
17
#79
b1100100 M
b1100100 q
b1100100 4"
b1 I
b1 l
b1 :"
b1100100 r
b1 m
b1100100 G
b1100100 d
b1100100 o
b1100100 1"
b1 F
b1 j
b1 /"
#80
b111 D
b111 g
b111 M"
b1100100 )
b1100100 6"
b1100100 ;"
b0 N"
b111 O"
b1100100 7"
b0 8"
b100000000000000000111 B
b100000000000000000111 t
b100000000000000000111 !"
13
0'
b100000000000000000111 ""
b100000011100000100110 2
b100000011100000100110 |
b100000011100000100110 ~
0+
0*
b100000000000000000111 1
b100000000000000000111 S
b100000000000000000111 y
b100000000000000000111 }
#81
b11001000 P
b11001000 -"
b11001000 G"
b11001000 J"
b11001000 >
b11001000 @"
b11001000 F"
b111001000100000000100000 0
b111001000100000000100000 V
b111001000100000000100000 %"
#82
b11001000 ,"
b1100101 5
b1100101 Y
b1100101 <"
#84
0"
07
#90
b1100101 P
b1100101 -"
b1100101 G"
b1000 D
b1000 g
b1000 M"
b1100101 I"
b0 J"
b11011110101011011011111011101111 >"
b11001 A"
b1000 O"
b100000000100000 {
b100000000000000000111 w
b100000000000000000111 $"
0H"
0C"
b1000 E
b1000 L"
b100 L
b100 2"
b100 K"
0O
b111 K
b111 0"
b100000000100000 <
b100000000100000 5"
b100000000000000000111 z
b11001000 V"
b100000000000000000111 v
b10000000000000000011100 -
b10000000000000000011100 !
b111 i
b111 Q
b111 ."
b1100100 f
b1100100 H
b1100100 ?"
0a
0@
0_
0?
b1100101 [
b1100101 6
b1100101 k
b1100101 p
b1100101 ="
b1100101 E"
b111001000100000000100000 X
b111001000100000000100000 =
b100000000000000000111 U
b100000000000000000111zz /
1"
17
#91
b10000000000 )
b10000000000 6"
b10000000000 ;"
b10000000000 7"
b10000000000 M
b10000000000 q
b10000000000 4"
b10000000000010000000000000000 I
b10000000000010000000000000000 l
b10000000000010000000000000000 :"
b10000000000 r
b10000000000010000000000000000 m
b1100101 ,"
b10000000000 G
b10000000000 d
b10000000000 o
b10000000000 1"
b10000000000010000000000000000 F
b10000000000010000000000000000 j
b10000000000010000000000000000 /"
#92
b100000000000000001000 B
b100000000000000001000 t
b100000000000000001000 !"
b100000000000000001000 ""
b100000000000000001000 1
b100000000000000001000 S
b100000000000000001000 y
b100000000000000001000 }
b100000100000000100111 2
b100000100000000100111 |
b100000100000000100111 ~
#93
b10000000000010000010000000000 5
b10000000000010000010000000000 Y
b10000000000010000010000000000 <"
b11001100100100000100000 0
b11001100100100000100000 V
b11001100100100000100000 %"
b0 >
b0 @"
b0 F"
b1100100 B"
#96
0"
07
#102
b1001 D
b1001 g
b1001 M"
b1001 O"
b100100000100000 {
b100000100000000 A"
b10000000000010000010000000000 P
b10000000000010000010000000000 -"
b10000000000010000010000000000 G"
b100000000000000001000 z
b1001 E
b1001 L"
b110 L
b110 2"
b110 K"
b11 K
b11 0"
b100100000100000 <
b100100000100000 5"
1C"
b10000000000010000010000000000 I"
b100000000000000001000 w
b100000000000000001000 $"
b100000000000000001000 U
b100000000000000001000zz /
b11001100100100000100000 X
b11001100100100000100000 =
b10000000000010000010000000000 [
b10000000000010000010000000000 6
b10000000000010000010000000000 k
b10000000000010000010000000000 p
b10000000000010000010000000000 ="
b10000000000010000010000000000 E"
b10000000000 f
b10000000000 H
b10000000000 ?"
b1000 i
b1000 Q
b1000 ."
b100000000000000001000 v
b10000000000000000100000 -
b10000000000000000100000 !
b1100101 W"
1"
17
#103
b11001000 )
b11001000 6"
b11001000 ;"
b11001000 7"
b11001000 M
b11001000 q
b11001000 4"
b11111111 I
b11111111 l
b11111111 :"
b11001000 r
b11111111 m
b10000000000010000010000000000 ,"
b11001000 G
b11001000 d
b11001000 o
b11001000 1"
b11111111 F
b11111111 j
b11111111 /"
#104
b100000000000000001001 B
b100000000000000001001 t
b100000000000000001001 !"
b100000000000000001001 ""
b100000100100000101000 2
b100000100100000101000 |
b100000100100000101000 ~
b100000000000000001001 1
b100000000000000001001 S
b100000000000000001001 y
b100000000000000001001 }
#105
b111000111 5
b111000111 Y
b111000111 <"
b10010010101000000100000 0
b10010010101000000100000 V
b10010010101000000100000 %"
b10000000000 B"
#108
0"
07
#114
b1010 D
b1010 g
b1010 M"
b1110001 A"
b111000111 P
b111000111 -"
b111000111 G"
b1010 O"
b101000000100000 {
b100000000000000001001 w
b100000000000000001001 $"
0C"
b111000111 I"
b1010 E
b1010 L"
b1001 L
b1001 2"
b1001 K"
b10 K
b10 0"
b101000000100000 <
b101000000100000 5"
b100000000000000001001 z
b10000000000010000010000000000 X"
b100000000000000001001 v
b10000000000000000100100 -
b10000000000000000100100 !
b1001 i
b1001 Q
b1001 ."
b11001000 f
b11001000 H
b11001000 ?"
b111000111 [
b111000111 6
b111000111 k
b111000111 p
b111000111 ="
b111000111 E"
b10010010101000000100000 X
b10010010101000000100000 =
b100000000000000001001 U
b100000000000000001001zz /
1"
17
#115
b10000000000010000000000000000 )
b10000000000010000000000000000 6"
b10000000000010000000000000000 ;"
b10000000000010000000000000000 7"
b10000000000010000000000000000 M
b10000000000010000000000000000 q
b10000000000010000000000000000 4"
b1 I
b1 l
b1 :"
b10000000000010000000000000000 r
b1 m
b111000111 ,"
b10000000000010000000000000000 G
b10000000000010000000000000000 d
b10000000000010000000000000000 o
b10000000000010000000000000000 1"
b1 F
b1 j
b1 /"
#116
b100000000000000001010 B
b100000000000000001010 t
b100000000000000001010 !"
b100000000000000001010 ""
b100000000000000001010 1
b100000000000000001010 S
b100000000000000001010 y
b100000000000000001010 }
b100000101000000101001 2
b100000101000000101001 |
b100000101000000101001 ~
#117
b10000000000010000000000000001 5
b10000000000010000000000000001 Y
b10000000000010000000000000001 <"
b10000110101100000100000 0
b10000110101100000100000 V
b10000110101100000100000 %"
b11001000 B"
#120
0"
07
#126
b1011 D
b1011 g
b1011 M"
b1011 O"
b101100000100000 {
b1 >"
b100000000000000 A"
b10000000000010000000000000001 P
b10000000000010000000000000001 -"
b10000000000010000000000000001 G"
b100000000000000001010 z
b1011 E
b1011 L"
b11 L
b11 2"
b11 K"
b101100000100000 <
b101100000100000 5"
1C"
b10000000000010000000000000001 I"
b100000000000000001010 w
b100000000000000001010 $"
b100000000000000001010 U
b100000000000000001010zz /
b10000110101100000100000 X
b10000110101100000100000 =
b10000000000010000000000000001 [
b10000000000010000000000000001 6
b10000000000010000000000000001 k
b10000000000010000000000000001 p
b10000000000010000000000000001 ="
b10000000000010000000000000001 E"
b10000000000010000000000000000 f
b10000000000010000000000000000 H
b10000000000010000000000000000 ?"
b1010 i
b1010 Q
b1010 ."
b100000000000000001010 v
b10000000000000000101000 -
b10000000000000000101000 !
b111000111 Y"
1"
17
